384
[ lyr= 1 ,	det= -1 ,	r= 3436.8 - 4497.93 ,	phi= 13.3804 - 31.6614 ,	z= -7017.36 - -6968.02 ,	rob= 0x6e0001 ,	hash= 0x0 ]
[ lyr= 1 ,	det= -1 ,	r= 3436.8 - 4497.93 ,	phi= 13.3804 - 31.6614 ,	z= -7017.36 - -6968.02 ,	rob= 0x6e0101 ,	hash= 0x0 ]
[ lyr= 1 ,	det= -1 ,	r= 3436.8 - 4497.93 ,	phi= 13.3804 - 31.6614 ,	z= -7017.36 - -6968.02 ,	rob= 0x6e0201 ,	hash= 0x0 ]
[ lyr= 1 ,	det= -1 ,	r= 3436.8 - 4497.93 ,	phi= 13.3804 - 31.6614 ,	z= -7017.36 - -6968.02 ,	rob= 0x6e0301 ,	hash= 0x0 ]
[ lyr= 1 ,	det= -1 ,	r= 3437.52 - 4498.64 ,	phi= 58.3725 - 76.6498 ,	z= -7020.93 - -6971.59 ,	rob= 0x6e0003 ,	hash= 0x1 ]
[ lyr= 1 ,	det= -1 ,	r= 3437.52 - 4498.64 ,	phi= 58.3725 - 76.6498 ,	z= -7020.93 - -6971.59 ,	rob= 0x6e0103 ,	hash= 0x1 ]
[ lyr= 1 ,	det= -1 ,	r= 3437.52 - 4498.64 ,	phi= 58.3725 - 76.6498 ,	z= -7020.93 - -6971.59 ,	rob= 0x6e0203 ,	hash= 0x1 ]
[ lyr= 1 ,	det= -1 ,	r= 3437.52 - 4498.64 ,	phi= 58.3725 - 76.6498 ,	z= -7020.93 - -6971.59 ,	rob= 0x6e0303 ,	hash= 0x1 ]
[ lyr= 1 ,	det= -1 ,	r= 3437.46 - 4498.58 ,	phi= 103.37 - 121.647 ,	z= -7020.82 - -6971.48 ,	rob= 0x6e0005 ,	hash= 0x2 ]
[ lyr= 1 ,	det= -1 ,	r= 3437.46 - 4498.58 ,	phi= 103.37 - 121.647 ,	z= -7020.82 - -6971.48 ,	rob= 0x6e0105 ,	hash= 0x2 ]
[ lyr= 1 ,	det= -1 ,	r= 3437.46 - 4498.58 ,	phi= 103.37 - 121.647 ,	z= -7020.82 - -6971.48 ,	rob= 0x6e0205 ,	hash= 0x2 ]
[ lyr= 1 ,	det= -1 ,	r= 3437.46 - 4498.58 ,	phi= 103.37 - 121.647 ,	z= -7020.82 - -6971.48 ,	rob= 0x6e0305 ,	hash= 0x2 ]
[ lyr= 1 ,	det= -1 ,	r= 3437.25 - 4498.37 ,	phi= 148.38 - 166.659 ,	z= -7019.62 - -6970.28 ,	rob= 0x6e0007 ,	hash= 0x3 ]
[ lyr= 1 ,	det= -1 ,	r= 3437.25 - 4498.37 ,	phi= 148.38 - 166.659 ,	z= -7019.62 - -6970.28 ,	rob= 0x6e0107 ,	hash= 0x3 ]
[ lyr= 1 ,	det= -1 ,	r= 3437.25 - 4498.37 ,	phi= 148.38 - 166.659 ,	z= -7019.62 - -6970.28 ,	rob= 0x6e0207 ,	hash= 0x3 ]
[ lyr= 1 ,	det= -1 ,	r= 3437.25 - 4498.37 ,	phi= 148.38 - 166.659 ,	z= -7019.62 - -6970.28 ,	rob= 0x6e0307 ,	hash= 0x3 ]
[ lyr= 1 ,	det= -1 ,	r= 3436.98 - 4498.11 ,	phi= -166.629 - -148.349 ,	z= -7018.16 - -6968.82 ,	rob= 0x6e0009 ,	hash= 0x4 ]
[ lyr= 1 ,	det= -1 ,	r= 3436.98 - 4498.11 ,	phi= -166.629 - -148.349 ,	z= -7018.16 - -6968.82 ,	rob= 0x6e0109 ,	hash= 0x4 ]
[ lyr= 1 ,	det= -1 ,	r= 3436.98 - 4498.11 ,	phi= -166.629 - -148.349 ,	z= -7018.16 - -6968.82 ,	rob= 0x6e0209 ,	hash= 0x4 ]
[ lyr= 1 ,	det= -1 ,	r= 3436.98 - 4498.11 ,	phi= -166.629 - -148.349 ,	z= -7018.16 - -6968.82 ,	rob= 0x6e0309 ,	hash= 0x4 ]
[ lyr= 1 ,	det= -1 ,	r= 3435.99 - 4497.12 ,	phi= -121.637 - -103.352 ,	z= -7021.07 - -6971.73 ,	rob= 0x6e000b ,	hash= 0x5 ]
[ lyr= 1 ,	det= -1 ,	r= 3435.99 - 4497.12 ,	phi= -121.637 - -103.352 ,	z= -7021.07 - -6971.73 ,	rob= 0x6e010b ,	hash= 0x5 ]
[ lyr= 1 ,	det= -1 ,	r= 3435.99 - 4497.12 ,	phi= -121.637 - -103.352 ,	z= -7021.07 - -6971.73 ,	rob= 0x6e020b ,	hash= 0x5 ]
[ lyr= 1 ,	det= -1 ,	r= 3435.99 - 4497.12 ,	phi= -121.637 - -103.352 ,	z= -7021.07 - -6971.73 ,	rob= 0x6e030b ,	hash= 0x5 ]
[ lyr= 1 ,	det= -1 ,	r= 3437.12 - 4498.24 ,	phi= -76.5885 - -58.3092 ,	z= -7021.31 - -6971.97 ,	rob= 0x6e000d ,	hash= 0x6 ]
[ lyr= 1 ,	det= -1 ,	r= 3437.12 - 4498.24 ,	phi= -76.5885 - -58.3092 ,	z= -7021.31 - -6971.97 ,	rob= 0x6e010d ,	hash= 0x6 ]
[ lyr= 1 ,	det= -1 ,	r= 3437.12 - 4498.24 ,	phi= -76.5885 - -58.3092 ,	z= -7021.31 - -6971.97 ,	rob= 0x6e020d ,	hash= 0x6 ]
[ lyr= 1 ,	det= -1 ,	r= 3437.12 - 4498.24 ,	phi= -76.5885 - -58.3092 ,	z= -7021.31 - -6971.97 ,	rob= 0x6e030d ,	hash= 0x6 ]
[ lyr= 1 ,	det= -1 ,	r= 3437.2 - 4498.32 ,	phi= -31.6013 - -13.3224 ,	z= -7015.76 - -6966.42 ,	rob= 0x6e000f ,	hash= 0x7 ]
[ lyr= 1 ,	det= -1 ,	r= 3437.2 - 4498.32 ,	phi= -31.6013 - -13.3224 ,	z= -7015.76 - -6966.42 ,	rob= 0x6e010f ,	hash= 0x7 ]
[ lyr= 1 ,	det= -1 ,	r= 3437.2 - 4498.32 ,	phi= -31.6013 - -13.3224 ,	z= -7015.76 - -6966.42 ,	rob= 0x6e020f ,	hash= 0x7 ]
[ lyr= 1 ,	det= -1 ,	r= 3437.2 - 4498.32 ,	phi= -31.6013 - -13.3224 ,	z= -7015.76 - -6966.42 ,	rob= 0x6e030f ,	hash= 0x7 ]
[ lyr= 1 ,	det= -1 ,	r= 2233.54 - 3469 ,	phi= 13.0434 - 32.0087 ,	z= -7017.28 - -6967.94 ,	rob= 0x6e0001 ,	hash= 0x8 ]
[ lyr= 1 ,	det= -1 ,	r= 2233.54 - 3469 ,	phi= 13.0434 - 32.0087 ,	z= -7017.28 - -6967.94 ,	rob= 0x6e0101 ,	hash= 0x8 ]
[ lyr= 1 ,	det= -1 ,	r= 2233.54 - 3469 ,	phi= 13.0434 - 32.0087 ,	z= -7017.28 - -6967.94 ,	rob= 0x6e0201 ,	hash= 0x8 ]
[ lyr= 1 ,	det= -1 ,	r= 2233.54 - 3469 ,	phi= 13.0434 - 32.0087 ,	z= -7017.28 - -6967.94 ,	rob= 0x6e0301 ,	hash= 0x8 ]
[ lyr= 1 ,	det= -1 ,	r= 2233.99 - 3469.44 ,	phi= 58.0386 - 77.0001 ,	z= -7019.45 - -6970.11 ,	rob= 0x6e0003 ,	hash= 0x9 ]
[ lyr= 1 ,	det= -1 ,	r= 2233.99 - 3469.44 ,	phi= 58.0386 - 77.0001 ,	z= -7019.45 - -6970.11 ,	rob= 0x6e0103 ,	hash= 0x9 ]
[ lyr= 1 ,	det= -1 ,	r= 2233.99 - 3469.44 ,	phi= 58.0386 - 77.0001 ,	z= -7019.45 - -6970.11 ,	rob= 0x6e0203 ,	hash= 0x9 ]
[ lyr= 1 ,	det= -1 ,	r= 2233.99 - 3469.44 ,	phi= 58.0386 - 77.0001 ,	z= -7019.45 - -6970.11 ,	rob= 0x6e0303 ,	hash= 0x9 ]
[ lyr= 1 ,	det= -1 ,	r= 2233.77 - 3469.23 ,	phi= 103.031 - 121.995 ,	z= -7019.99 - -6970.65 ,	rob= 0x6e0005 ,	hash= 0xa ]
[ lyr= 1 ,	det= -1 ,	r= 2233.77 - 3469.23 ,	phi= 103.031 - 121.995 ,	z= -7019.99 - -6970.65 ,	rob= 0x6e0105 ,	hash= 0xa ]
[ lyr= 1 ,	det= -1 ,	r= 2233.77 - 3469.23 ,	phi= 103.031 - 121.995 ,	z= -7019.99 - -6970.65 ,	rob= 0x6e0205 ,	hash= 0xa ]
[ lyr= 1 ,	det= -1 ,	r= 2233.77 - 3469.23 ,	phi= 103.031 - 121.995 ,	z= -7019.99 - -6970.65 ,	rob= 0x6e0305 ,	hash= 0xa ]
[ lyr= 1 ,	det= -1 ,	r= 2233.72 - 3469.18 ,	phi= 148.033 - 166.997 ,	z= -7019.05 - -6969.71 ,	rob= 0x6e0007 ,	hash= 0xb ]
[ lyr= 1 ,	det= -1 ,	r= 2233.72 - 3469.18 ,	phi= 148.033 - 166.997 ,	z= -7019.05 - -6969.71 ,	rob= 0x6e0107 ,	hash= 0xb ]
[ lyr= 1 ,	det= -1 ,	r= 2233.72 - 3469.18 ,	phi= 148.033 - 166.997 ,	z= -7019.05 - -6969.71 ,	rob= 0x6e0207 ,	hash= 0xb ]
[ lyr= 1 ,	det= -1 ,	r= 2233.72 - 3469.18 ,	phi= 148.033 - 166.997 ,	z= -7019.05 - -6969.71 ,	rob= 0x6e0307 ,	hash= 0xb ]
[ lyr= 1 ,	det= -1 ,	r= 2233.42 - 3468.88 ,	phi= -166.983 - -148.017 ,	z= -7018.66 - -6969.32 ,	rob= 0x6e0009 ,	hash= 0xc ]
[ lyr= 1 ,	det= -1 ,	r= 2233.42 - 3468.88 ,	phi= -166.983 - -148.017 ,	z= -7018.66 - -6969.32 ,	rob= 0x6e0109 ,	hash= 0xc ]
[ lyr= 1 ,	det= -1 ,	r= 2233.42 - 3468.88 ,	phi= -166.983 - -148.017 ,	z= -7018.66 - -6969.32 ,	rob= 0x6e0209 ,	hash= 0xc ]
[ lyr= 1 ,	det= -1 ,	r= 2233.42 - 3468.88 ,	phi= -166.983 - -148.017 ,	z= -7018.66 - -6969.32 ,	rob= 0x6e0309 ,	hash= 0xc ]
[ lyr= 1 ,	det= -1 ,	r= 2232.37 - 3467.84 ,	phi= -121.996 - -103.021 ,	z= -7019.53 - -6970.19 ,	rob= 0x6e000b ,	hash= 0xd ]
[ lyr= 1 ,	det= -1 ,	r= 2232.37 - 3467.84 ,	phi= -121.996 - -103.021 ,	z= -7019.53 - -6970.19 ,	rob= 0x6e010b ,	hash= 0xd ]
[ lyr= 1 ,	det= -1 ,	r= 2232.37 - 3467.84 ,	phi= -121.996 - -103.021 ,	z= -7019.53 - -6970.19 ,	rob= 0x6e020b ,	hash= 0xd ]
[ lyr= 1 ,	det= -1 ,	r= 2232.37 - 3467.84 ,	phi= -121.996 - -103.021 ,	z= -7019.53 - -6970.19 ,	rob= 0x6e030b ,	hash= 0xd ]
[ lyr= 1 ,	det= -1 ,	r= 2233.63 - 3469.09 ,	phi= -76.9355 - -57.971 ,	z= -7019.37 - -6970.03 ,	rob= 0x6e000d ,	hash= 0xe ]
[ lyr= 1 ,	det= -1 ,	r= 2233.63 - 3469.09 ,	phi= -76.9355 - -57.971 ,	z= -7019.37 - -6970.03 ,	rob= 0x6e010d ,	hash= 0xe ]
[ lyr= 1 ,	det= -1 ,	r= 2233.63 - 3469.09 ,	phi= -76.9355 - -57.971 ,	z= -7019.37 - -6970.03 ,	rob= 0x6e020d ,	hash= 0xe ]
[ lyr= 1 ,	det= -1 ,	r= 2233.63 - 3469.09 ,	phi= -76.9355 - -57.971 ,	z= -7019.37 - -6970.03 ,	rob= 0x6e030d ,	hash= 0xe ]
[ lyr= 1 ,	det= -1 ,	r= 2233.68 - 3469.13 ,	phi= -31.937 - -12.9729 ,	z= -7016.62 - -6967.28 ,	rob= 0x6e000f ,	hash= 0xf ]
[ lyr= 1 ,	det= -1 ,	r= 2233.68 - 3469.13 ,	phi= -31.937 - -12.9729 ,	z= -7016.62 - -6967.28 ,	rob= 0x6e010f ,	hash= 0xf ]
[ lyr= 1 ,	det= -1 ,	r= 2233.68 - 3469.13 ,	phi= -31.937 - -12.9729 ,	z= -7016.62 - -6967.28 ,	rob= 0x6e020f ,	hash= 0xf ]
[ lyr= 1 ,	det= -1 ,	r= 2233.68 - 3469.13 ,	phi= -31.937 - -12.9729 ,	z= -7016.62 - -6967.28 ,	rob= 0x6e030f ,	hash= 0xf ]
[ lyr= 1 ,	det= -1 ,	r= 899.293 - 2255.71 ,	phi= 11.6255 - 33.4609 ,	z= -7017.42 - -6968.08 ,	rob= 0x6e0001 ,	hash= 0x10 ]
[ lyr= 1 ,	det= -1 ,	r= 899.293 - 2255.71 ,	phi= 11.6255 - 33.4609 ,	z= -7017.42 - -6968.08 ,	rob= 0x6e0101 ,	hash= 0x10 ]
[ lyr= 1 ,	det= -1 ,	r= 899.293 - 2255.71 ,	phi= 11.6255 - 33.4609 ,	z= -7017.42 - -6968.08 ,	rob= 0x6e0201 ,	hash= 0x10 ]
[ lyr= 1 ,	det= -1 ,	r= 899.293 - 2255.71 ,	phi= 11.6255 - 33.4609 ,	z= -7017.42 - -6968.08 ,	rob= 0x6e0301 ,	hash= 0x10 ]
[ lyr= 1 ,	det= -1 ,	r= 899.549 - 2255.96 ,	phi= 56.6333 - 78.4627 ,	z= -7018.21 - -6968.87 ,	rob= 0x6e0003 ,	hash= 0x11 ]
[ lyr= 1 ,	det= -1 ,	r= 899.549 - 2255.96 ,	phi= 56.6333 - 78.4627 ,	z= -7018.21 - -6968.87 ,	rob= 0x6e0103 ,	hash= 0x11 ]
[ lyr= 1 ,	det= -1 ,	r= 899.549 - 2255.96 ,	phi= 56.6333 - 78.4627 ,	z= -7018.21 - -6968.87 ,	rob= 0x6e0203 ,	hash= 0x11 ]
[ lyr= 1 ,	det= -1 ,	r= 899.549 - 2255.96 ,	phi= 56.6333 - 78.4627 ,	z= -7018.21 - -6968.87 ,	rob= 0x6e0303 ,	hash= 0x11 ]
[ lyr= 1 ,	det= -1 ,	r= 899.493 - 2255.91 ,	phi= 101.618 - 123.449 ,	z= -7019.22 - -6969.88 ,	rob= 0x6e0005 ,	hash= 0x12 ]
[ lyr= 1 ,	det= -1 ,	r= 899.493 - 2255.91 ,	phi= 101.618 - 123.449 ,	z= -7019.22 - -6969.88 ,	rob= 0x6e0105 ,	hash= 0x12 ]
[ lyr= 1 ,	det= -1 ,	r= 899.493 - 2255.91 ,	phi= 101.618 - 123.449 ,	z= -7019.22 - -6969.88 ,	rob= 0x6e0205 ,	hash= 0x12 ]
[ lyr= 1 ,	det= -1 ,	r= 899.493 - 2255.91 ,	phi= 101.618 - 123.449 ,	z= -7019.22 - -6969.88 ,	rob= 0x6e0305 ,	hash= 0x12 ]
[ lyr= 1 ,	det= -1 ,	r= 899.725 - 2256.13 ,	phi= 146.598 - 168.423 ,	z= -7019.15 - -6969.81 ,	rob= 0x6e0007 ,	hash= 0x13 ]
[ lyr= 1 ,	det= -1 ,	r= 899.725 - 2256.13 ,	phi= 146.598 - 168.423 ,	z= -7019.15 - -6969.81 ,	rob= 0x6e0107 ,	hash= 0x13 ]
[ lyr= 1 ,	det= -1 ,	r= 899.725 - 2256.13 ,	phi= 146.598 - 168.423 ,	z= -7019.15 - -6969.81 ,	rob= 0x6e0207 ,	hash= 0x13 ]
[ lyr= 1 ,	det= -1 ,	r= 899.725 - 2256.13 ,	phi= 146.598 - 168.423 ,	z= -7019.15 - -6969.81 ,	rob= 0x6e0307 ,	hash= 0x13 ]
[ lyr= 1 ,	det= -1 ,	r= 899.008 - 2255.43 ,	phi= -168.45 - -146.608 ,	z= -7019.65 - -6970.31 ,	rob= 0x6e0009 ,	hash= 0x14 ]
[ lyr= 1 ,	det= -1 ,	r= 899.008 - 2255.43 ,	phi= -168.45 - -146.608 ,	z= -7019.65 - -6970.31 ,	rob= 0x6e0109 ,	hash= 0x14 ]
[ lyr= 1 ,	det= -1 ,	r= 899.008 - 2255.43 ,	phi= -168.45 - -146.608 ,	z= -7019.65 - -6970.31 ,	rob= 0x6e0209 ,	hash= 0x14 ]
[ lyr= 1 ,	det= -1 ,	r= 899.008 - 2255.43 ,	phi= -168.45 - -146.608 ,	z= -7019.65 - -6970.31 ,	rob= 0x6e0309 ,	hash= 0x14 ]
[ lyr= 1 ,	det= -1 ,	r= 898.398 - 2254.83 ,	phi= -123.466 - -101.609 ,	z= -7017.6 - -6968.26 ,	rob= 0x6e000b ,	hash= 0x15 ]
[ lyr= 1 ,	det= -1 ,	r= 898.398 - 2254.83 ,	phi= -123.466 - -101.609 ,	z= -7017.6 - -6968.26 ,	rob= 0x6e010b ,	hash= 0x15 ]
[ lyr= 1 ,	det= -1 ,	r= 898.398 - 2254.83 ,	phi= -123.466 - -101.609 ,	z= -7017.6 - -6968.26 ,	rob= 0x6e020b ,	hash= 0x15 ]
[ lyr= 1 ,	det= -1 ,	r= 898.398 - 2254.83 ,	phi= -123.466 - -101.609 ,	z= -7017.6 - -6968.26 ,	rob= 0x6e030b ,	hash= 0x15 ]
[ lyr= 1 ,	det= -1 ,	r= 899.371 - 2255.78 ,	phi= -78.3755 - -56.5419 ,	z= -7017.91 - -6968.57 ,	rob= 0x6e000d ,	hash= 0x16 ]
[ lyr= 1 ,	det= -1 ,	r= 899.371 - 2255.78 ,	phi= -78.3755 - -56.5419 ,	z= -7017.91 - -6968.57 ,	rob= 0x6e010d ,	hash= 0x16 ]
[ lyr= 1 ,	det= -1 ,	r= 899.371 - 2255.78 ,	phi= -78.3755 - -56.5419 ,	z= -7017.91 - -6968.57 ,	rob= 0x6e020d ,	hash= 0x16 ]
[ lyr= 1 ,	det= -1 ,	r= 899.371 - 2255.78 ,	phi= -78.3755 - -56.5419 ,	z= -7017.91 - -6968.57 ,	rob= 0x6e030d ,	hash= 0x16 ]
[ lyr= 1 ,	det= -1 ,	r= 899.599 - 2256.01 ,	phi= -33.34 - -11.5118 ,	z= -7017.11 - -6967.77 ,	rob= 0x6e000f ,	hash= 0x17 ]
[ lyr= 1 ,	det= -1 ,	r= 899.599 - 2256.01 ,	phi= -33.34 - -11.5118 ,	z= -7017.11 - -6967.77 ,	rob= 0x6e010f ,	hash= 0x17 ]
[ lyr= 1 ,	det= -1 ,	r= 899.599 - 2256.01 ,	phi= -33.34 - -11.5118 ,	z= -7017.11 - -6967.77 ,	rob= 0x6e020f ,	hash= 0x17 ]
[ lyr= 1 ,	det= -1 ,	r= 899.599 - 2256.01 ,	phi= -33.34 - -11.5118 ,	z= -7017.11 - -6967.77 ,	rob= 0x6e030f ,	hash= 0x17 ]
[ lyr= 1 ,	det= 1 ,	r= 900.912 - 2257.3 ,	phi= 11.5243 - 33.3215 ,	z= 6964.73 - 7014.07 ,	rob= 0x6d0001 ,	hash= 0x18 ]
[ lyr= 1 ,	det= 1 ,	r= 900.912 - 2257.3 ,	phi= 11.5243 - 33.3215 ,	z= 6964.73 - 7014.07 ,	rob= 0x6d0101 ,	hash= 0x18 ]
[ lyr= 1 ,	det= 1 ,	r= 900.912 - 2257.3 ,	phi= 11.5243 - 33.3215 ,	z= 6964.73 - 7014.07 ,	rob= 0x6d0201 ,	hash= 0x18 ]
[ lyr= 1 ,	det= 1 ,	r= 900.912 - 2257.3 ,	phi= 11.5243 - 33.3215 ,	z= 6964.73 - 7014.07 ,	rob= 0x6d0301 ,	hash= 0x18 ]
[ lyr= 1 ,	det= 1 ,	r= 899.051 - 2255.47 ,	phi= 56.5655 - 78.4067 ,	z= 6967.79 - 7017.13 ,	rob= 0x6d0003 ,	hash= 0x19 ]
[ lyr= 1 ,	det= 1 ,	r= 899.051 - 2255.47 ,	phi= 56.5655 - 78.4067 ,	z= 6967.79 - 7017.13 ,	rob= 0x6d0103 ,	hash= 0x19 ]
[ lyr= 1 ,	det= 1 ,	r= 899.051 - 2255.47 ,	phi= 56.5655 - 78.4067 ,	z= 6967.79 - 7017.13 ,	rob= 0x6d0203 ,	hash= 0x19 ]
[ lyr= 1 ,	det= 1 ,	r= 899.051 - 2255.47 ,	phi= 56.5655 - 78.4067 ,	z= 6967.79 - 7017.13 ,	rob= 0x6d0303 ,	hash= 0x19 ]
[ lyr= 1 ,	det= 1 ,	r= 898.011 - 2254.44 ,	phi= 101.557 - 123.423 ,	z= 6967.16 - 7016.5 ,	rob= 0x6d0005 ,	hash= 0x1a ]
[ lyr= 1 ,	det= 1 ,	r= 898.011 - 2254.44 ,	phi= 101.557 - 123.423 ,	z= 6967.16 - 7016.5 ,	rob= 0x6d0105 ,	hash= 0x1a ]
[ lyr= 1 ,	det= 1 ,	r= 898.011 - 2254.44 ,	phi= 101.557 - 123.423 ,	z= 6967.16 - 7016.5 ,	rob= 0x6d0205 ,	hash= 0x1a ]
[ lyr= 1 ,	det= 1 ,	r= 898.011 - 2254.44 ,	phi= 101.557 - 123.423 ,	z= 6967.16 - 7016.5 ,	rob= 0x6d0305 ,	hash= 0x1a ]
[ lyr= 1 ,	det= 1 ,	r= 897.745 - 2254.18 ,	phi= 146.524 - 168.396 ,	z= 6964.55 - 7013.89 ,	rob= 0x6d0007 ,	hash= 0x1b ]
[ lyr= 1 ,	det= 1 ,	r= 897.745 - 2254.18 ,	phi= 146.524 - 168.396 ,	z= 6964.55 - 7013.89 ,	rob= 0x6d0107 ,	hash= 0x1b ]
[ lyr= 1 ,	det= 1 ,	r= 897.745 - 2254.18 ,	phi= 146.524 - 168.396 ,	z= 6964.55 - 7013.89 ,	rob= 0x6d0207 ,	hash= 0x1b ]
[ lyr= 1 ,	det= 1 ,	r= 897.745 - 2254.18 ,	phi= 146.524 - 168.396 ,	z= 6964.55 - 7013.89 ,	rob= 0x6d0307 ,	hash= 0x1b ]
[ lyr= 1 ,	det= 1 ,	r= 898.863 - 2255.28 ,	phi= -168.426 - -146.581 ,	z= 6962.94 - 7012.28 ,	rob= 0x6d0009 ,	hash= 0x1c ]
[ lyr= 1 ,	det= 1 ,	r= 898.863 - 2255.28 ,	phi= -168.426 - -146.581 ,	z= 6962.94 - 7012.28 ,	rob= 0x6d0109 ,	hash= 0x1c ]
[ lyr= 1 ,	det= 1 ,	r= 898.863 - 2255.28 ,	phi= -168.426 - -146.581 ,	z= 6962.94 - 7012.28 ,	rob= 0x6d0209 ,	hash= 0x1c ]
[ lyr= 1 ,	det= 1 ,	r= 898.863 - 2255.28 ,	phi= -168.426 - -146.581 ,	z= 6962.94 - 7012.28 ,	rob= 0x6d0309 ,	hash= 0x1c ]
[ lyr= 1 ,	det= 1 ,	r= 897.369 - 2253.81 ,	phi= -123.356 - -101.474 ,	z= 6965.28 - 7014.62 ,	rob= 0x6d000b ,	hash= 0x1d ]
[ lyr= 1 ,	det= 1 ,	r= 897.369 - 2253.81 ,	phi= -123.356 - -101.474 ,	z= 6965.28 - 7014.62 ,	rob= 0x6d010b ,	hash= 0x1d ]
[ lyr= 1 ,	det= 1 ,	r= 897.369 - 2253.81 ,	phi= -123.356 - -101.474 ,	z= 6965.28 - 7014.62 ,	rob= 0x6d020b ,	hash= 0x1d ]
[ lyr= 1 ,	det= 1 ,	r= 897.369 - 2253.81 ,	phi= -123.356 - -101.474 ,	z= 6965.28 - 7014.62 ,	rob= 0x6d030b ,	hash= 0x1d ]
[ lyr= 1 ,	det= 1 ,	r= 899.843 - 2256.25 ,	phi= -78.3796 - -56.5572 ,	z= 6963.38 - 7012.72 ,	rob= 0x6d000d ,	hash= 0x1e ]
[ lyr= 1 ,	det= 1 ,	r= 899.843 - 2256.25 ,	phi= -78.3796 - -56.5572 ,	z= 6963.38 - 7012.72 ,	rob= 0x6d010d ,	hash= 0x1e ]
[ lyr= 1 ,	det= 1 ,	r= 899.843 - 2256.25 ,	phi= -78.3796 - -56.5572 ,	z= 6963.38 - 7012.72 ,	rob= 0x6d020d ,	hash= 0x1e ]
[ lyr= 1 ,	det= 1 ,	r= 899.843 - 2256.25 ,	phi= -78.3796 - -56.5572 ,	z= 6963.38 - 7012.72 ,	rob= 0x6d030d ,	hash= 0x1e ]
[ lyr= 1 ,	det= 1 ,	r= 900.429 - 2256.83 ,	phi= -33.3924 - -11.5838 ,	z= 6964.75 - 7014.09 ,	rob= 0x6d000f ,	hash= 0x1f ]
[ lyr= 1 ,	det= 1 ,	r= 900.429 - 2256.83 ,	phi= -33.3924 - -11.5838 ,	z= 6964.75 - 7014.09 ,	rob= 0x6d010f ,	hash= 0x1f ]
[ lyr= 1 ,	det= 1 ,	r= 900.429 - 2256.83 ,	phi= -33.3924 - -11.5838 ,	z= 6964.75 - 7014.09 ,	rob= 0x6d020f ,	hash= 0x1f ]
[ lyr= 1 ,	det= 1 ,	r= 900.429 - 2256.83 ,	phi= -33.3924 - -11.5838 ,	z= 6964.75 - 7014.09 ,	rob= 0x6d030f ,	hash= 0x1f ]
[ lyr= 1 ,	det= 1 ,	r= 2235.04 - 3470.48 ,	phi= 13.0113 - 31.9641 ,	z= 6965.56 - 7014.9 ,	rob= 0x6d0001 ,	hash= 0x20 ]
[ lyr= 1 ,	det= 1 ,	r= 2235.04 - 3470.48 ,	phi= 13.0113 - 31.9641 ,	z= 6965.56 - 7014.9 ,	rob= 0x6d0101 ,	hash= 0x20 ]
[ lyr= 1 ,	det= 1 ,	r= 2235.04 - 3470.48 ,	phi= 13.0113 - 31.9641 ,	z= 6965.56 - 7014.9 ,	rob= 0x6d0201 ,	hash= 0x20 ]
[ lyr= 1 ,	det= 1 ,	r= 2235.04 - 3470.48 ,	phi= 13.0113 - 31.9641 ,	z= 6965.56 - 7014.9 ,	rob= 0x6d0301 ,	hash= 0x20 ]
[ lyr= 1 ,	det= 1 ,	r= 2233.25 - 3468.71 ,	phi= 58.0056 - 76.9733 ,	z= 6968.8 - 7018.14 ,	rob= 0x6d0003 ,	hash= 0x21 ]
[ lyr= 1 ,	det= 1 ,	r= 2233.25 - 3468.71 ,	phi= 58.0056 - 76.9733 ,	z= 6968.8 - 7018.14 ,	rob= 0x6d0103 ,	hash= 0x21 ]
[ lyr= 1 ,	det= 1 ,	r= 2233.25 - 3468.71 ,	phi= 58.0056 - 76.9733 ,	z= 6968.8 - 7018.14 ,	rob= 0x6d0203 ,	hash= 0x21 ]
[ lyr= 1 ,	det= 1 ,	r= 2233.25 - 3468.71 ,	phi= 58.0056 - 76.9733 ,	z= 6968.8 - 7018.14 ,	rob= 0x6d0303 ,	hash= 0x21 ]
[ lyr= 1 ,	det= 1 ,	r= 2232.26 - 3467.73 ,	phi= 103.025 - 122.001 ,	z= 6968.86 - 7018.2 ,	rob= 0x6d0005 ,	hash= 0x22 ]
[ lyr= 1 ,	det= 1 ,	r= 2232.26 - 3467.73 ,	phi= 103.025 - 122.001 ,	z= 6968.86 - 7018.2 ,	rob= 0x6d0105 ,	hash= 0x22 ]
[ lyr= 1 ,	det= 1 ,	r= 2232.26 - 3467.73 ,	phi= 103.025 - 122.001 ,	z= 6968.86 - 7018.2 ,	rob= 0x6d0205 ,	hash= 0x22 ]
[ lyr= 1 ,	det= 1 ,	r= 2232.26 - 3467.73 ,	phi= 103.025 - 122.001 ,	z= 6968.86 - 7018.2 ,	rob= 0x6d0305 ,	hash= 0x22 ]
[ lyr= 1 ,	det= 1 ,	r= 2231.97 - 3467.44 ,	phi= 148.008 - 166.986 ,	z= 6964.61 - 7013.95 ,	rob= 0x6d0007 ,	hash= 0x23 ]
[ lyr= 1 ,	det= 1 ,	r= 2231.97 - 3467.44 ,	phi= 148.008 - 166.986 ,	z= 6964.61 - 7013.95 ,	rob= 0x6d0107 ,	hash= 0x23 ]
[ lyr= 1 ,	det= 1 ,	r= 2231.97 - 3467.44 ,	phi= 148.008 - 166.986 ,	z= 6964.61 - 7013.95 ,	rob= 0x6d0207 ,	hash= 0x23 ]
[ lyr= 1 ,	det= 1 ,	r= 2231.97 - 3467.44 ,	phi= 148.008 - 166.986 ,	z= 6964.61 - 7013.95 ,	rob= 0x6d0307 ,	hash= 0x23 ]
[ lyr= 1 ,	det= 1 ,	r= 2232.93 - 3468.4 ,	phi= -166.975 - -148.005 ,	z= 6959.87 - 7009.21 ,	rob= 0x6d0009 ,	hash= 0x24 ]
[ lyr= 1 ,	det= 1 ,	r= 2232.93 - 3468.4 ,	phi= -166.975 - -148.005 ,	z= 6959.87 - 7009.21 ,	rob= 0x6d0109 ,	hash= 0x24 ]
[ lyr= 1 ,	det= 1 ,	r= 2232.93 - 3468.4 ,	phi= -166.975 - -148.005 ,	z= 6959.87 - 7009.21 ,	rob= 0x6d0209 ,	hash= 0x24 ]
[ lyr= 1 ,	det= 1 ,	r= 2232.93 - 3468.4 ,	phi= -166.975 - -148.005 ,	z= 6959.87 - 7009.21 ,	rob= 0x6d0309 ,	hash= 0x24 ]
[ lyr= 1 ,	det= 1 ,	r= 2231.22 - 3466.7 ,	phi= -121.951 - -102.967 ,	z= 6964.92 - 7014.26 ,	rob= 0x6d000b ,	hash= 0x25 ]
[ lyr= 1 ,	det= 1 ,	r= 2231.22 - 3466.7 ,	phi= -121.951 - -102.967 ,	z= 6964.92 - 7014.26 ,	rob= 0x6d010b ,	hash= 0x25 ]
[ lyr= 1 ,	det= 1 ,	r= 2231.22 - 3466.7 ,	phi= -121.951 - -102.967 ,	z= 6964.92 - 7014.26 ,	rob= 0x6d020b ,	hash= 0x25 ]
[ lyr= 1 ,	det= 1 ,	r= 2231.22 - 3466.7 ,	phi= -121.951 - -102.967 ,	z= 6964.92 - 7014.26 ,	rob= 0x6d030b ,	hash= 0x25 ]
[ lyr= 1 ,	det= 1 ,	r= 2234.1 - 3469.55 ,	phi= -76.9352 - -57.9747 ,	z= 6964.25 - 7013.59 ,	rob= 0x6d000d ,	hash= 0x26 ]
[ lyr= 1 ,	det= 1 ,	r= 2234.1 - 3469.55 ,	phi= -76.9352 - -57.9747 ,	z= 6964.25 - 7013.59 ,	rob= 0x6d010d ,	hash= 0x26 ]
[ lyr= 1 ,	det= 1 ,	r= 2234.1 - 3469.55 ,	phi= -76.9352 - -57.9747 ,	z= 6964.25 - 7013.59 ,	rob= 0x6d020d ,	hash= 0x26 ]
[ lyr= 1 ,	det= 1 ,	r= 2234.1 - 3469.55 ,	phi= -76.9352 - -57.9747 ,	z= 6964.25 - 7013.59 ,	rob= 0x6d030d ,	hash= 0x26 ]
[ lyr= 1 ,	det= 1 ,	r= 2234.65 - 3470.1 ,	phi= -31.9413 - -12.9853 ,	z= 6961.12 - 7010.46 ,	rob= 0x6d000f ,	hash= 0x27 ]
[ lyr= 1 ,	det= 1 ,	r= 2234.65 - 3470.1 ,	phi= -31.9413 - -12.9853 ,	z= 6961.12 - 7010.46 ,	rob= 0x6d010f ,	hash= 0x27 ]
[ lyr= 1 ,	det= 1 ,	r= 2234.65 - 3470.1 ,	phi= -31.9413 - -12.9853 ,	z= 6961.12 - 7010.46 ,	rob= 0x6d020f ,	hash= 0x27 ]
[ lyr= 1 ,	det= 1 ,	r= 2234.65 - 3470.1 ,	phi= -31.9413 - -12.9853 ,	z= 6961.12 - 7010.46 ,	rob= 0x6d030f ,	hash= 0x27 ]
[ lyr= 1 ,	det= 1 ,	r= 3438.73 - 4499.83 ,	phi= 13.3713 - 31.6423 ,	z= 6966.4 - 7015.74 ,	rob= 0x6d0001 ,	hash= 0x28 ]
[ lyr= 1 ,	det= 1 ,	r= 3438.73 - 4499.83 ,	phi= 13.3713 - 31.6423 ,	z= 6966.4 - 7015.74 ,	rob= 0x6d0101 ,	hash= 0x28 ]
[ lyr= 1 ,	det= 1 ,	r= 3438.73 - 4499.83 ,	phi= 13.3713 - 31.6423 ,	z= 6966.4 - 7015.74 ,	rob= 0x6d0201 ,	hash= 0x28 ]
[ lyr= 1 ,	det= 1 ,	r= 3438.73 - 4499.83 ,	phi= 13.3713 - 31.6423 ,	z= 6966.4 - 7015.74 ,	rob= 0x6d0301 ,	hash= 0x28 ]
[ lyr= 1 ,	det= 1 ,	r= 3436.78 - 4497.9 ,	phi= 58.346 - 76.6272 ,	z= 6969.67 - 7019.01 ,	rob= 0x6d0003 ,	hash= 0x29 ]
[ lyr= 1 ,	det= 1 ,	r= 3436.78 - 4497.9 ,	phi= 58.346 - 76.6272 ,	z= 6969.67 - 7019.01 ,	rob= 0x6d0103 ,	hash= 0x29 ]
[ lyr= 1 ,	det= 1 ,	r= 3436.78 - 4497.9 ,	phi= 58.346 - 76.6272 ,	z= 6969.67 - 7019.01 ,	rob= 0x6d0203 ,	hash= 0x29 ]
[ lyr= 1 ,	det= 1 ,	r= 3436.78 - 4497.9 ,	phi= 58.346 - 76.6272 ,	z= 6969.67 - 7019.01 ,	rob= 0x6d0303 ,	hash= 0x29 ]
[ lyr= 1 ,	det= 1 ,	r= 3435.85 - 4496.98 ,	phi= 103.374 - 121.66 ,	z= 6970.74 - 7020.08 ,	rob= 0x6d0005 ,	hash= 0x2a ]
[ lyr= 1 ,	det= 1 ,	r= 3435.85 - 4496.98 ,	phi= 103.374 - 121.66 ,	z= 6970.74 - 7020.08 ,	rob= 0x6d0105 ,	hash= 0x2a ]
[ lyr= 1 ,	det= 1 ,	r= 3435.85 - 4496.98 ,	phi= 103.374 - 121.66 ,	z= 6970.74 - 7020.08 ,	rob= 0x6d0205 ,	hash= 0x2a ]
[ lyr= 1 ,	det= 1 ,	r= 3435.85 - 4496.98 ,	phi= 103.374 - 121.66 ,	z= 6970.74 - 7020.08 ,	rob= 0x6d0305 ,	hash= 0x2a ]
[ lyr= 1 ,	det= 1 ,	r= 3435.47 - 4496.61 ,	phi= 148.361 - 166.649 ,	z= 6965.48 - 7014.82 ,	rob= 0x6d0007 ,	hash= 0x2b ]
[ lyr= 1 ,	det= 1 ,	r= 3435.47 - 4496.61 ,	phi= 148.361 - 166.649 ,	z= 6965.48 - 7014.82 ,	rob= 0x6d0107 ,	hash= 0x2b ]
[ lyr= 1 ,	det= 1 ,	r= 3435.47 - 4496.61 ,	phi= 148.361 - 166.649 ,	z= 6965.48 - 7014.82 ,	rob= 0x6d0207 ,	hash= 0x2b ]
[ lyr= 1 ,	det= 1 ,	r= 3435.47 - 4496.61 ,	phi= 148.361 - 166.649 ,	z= 6965.48 - 7014.82 ,	rob= 0x6d0307 ,	hash= 0x2b ]
[ lyr= 1 ,	det= 1 ,	r= 3436.54 - 4497.66 ,	phi= -166.633 - -148.35 ,	z= 6957.88 - 7007.22 ,	rob= 0x6d0009 ,	hash= 0x2c ]
[ lyr= 1 ,	det= 1 ,	r= 3436.54 - 4497.66 ,	phi= -166.633 - -148.35 ,	z= 6957.88 - 7007.22 ,	rob= 0x6d0109 ,	hash= 0x2c ]
[ lyr= 1 ,	det= 1 ,	r= 3436.54 - 4497.66 ,	phi= -166.633 - -148.35 ,	z= 6957.88 - 7007.22 ,	rob= 0x6d0209 ,	hash= 0x2c ]
[ lyr= 1 ,	det= 1 ,	r= 3436.54 - 4497.66 ,	phi= -166.633 - -148.35 ,	z= 6957.88 - 7007.22 ,	rob= 0x6d0309 ,	hash= 0x2c ]
[ lyr= 1 ,	det= 1 ,	r= 3434.32 - 4495.48 ,	phi= -121.627 - -103.333 ,	z= 6965.13 - 7014.47 ,	rob= 0x6d000b ,	hash= 0x2d ]
[ lyr= 1 ,	det= 1 ,	r= 3434.32 - 4495.48 ,	phi= -121.627 - -103.333 ,	z= 6965.13 - 7014.47 ,	rob= 0x6d010b ,	hash= 0x2d ]
[ lyr= 1 ,	det= 1 ,	r= 3434.32 - 4495.48 ,	phi= -121.627 - -103.333 ,	z= 6965.13 - 7014.47 ,	rob= 0x6d020b ,	hash= 0x2d ]
[ lyr= 1 ,	det= 1 ,	r= 3434.32 - 4495.48 ,	phi= -121.627 - -103.333 ,	z= 6965.13 - 7014.47 ,	rob= 0x6d030b ,	hash= 0x2d ]
[ lyr= 1 ,	det= 1 ,	r= 3437.78 - 4498.89 ,	phi= -76.5918 - -58.3158 ,	z= 6965.48 - 7014.82 ,	rob= 0x6d000d ,	hash= 0x2e ]
[ lyr= 1 ,	det= 1 ,	r= 3437.78 - 4498.89 ,	phi= -76.5918 - -58.3158 ,	z= 6965.48 - 7014.82 ,	rob= 0x6d010d ,	hash= 0x2e ]
[ lyr= 1 ,	det= 1 ,	r= 3437.78 - 4498.89 ,	phi= -76.5918 - -58.3158 ,	z= 6965.48 - 7014.82 ,	rob= 0x6d020d ,	hash= 0x2e ]
[ lyr= 1 ,	det= 1 ,	r= 3437.78 - 4498.89 ,	phi= -76.5918 - -58.3158 ,	z= 6965.48 - 7014.82 ,	rob= 0x6d030d ,	hash= 0x2e ]
[ lyr= 1 ,	det= 1 ,	r= 3438.15 - 4499.26 ,	phi= -31.5974 - -13.3234 ,	z= 6958.05 - 7007.39 ,	rob= 0x6d000f ,	hash= 0x2f ]
[ lyr= 1 ,	det= 1 ,	r= 3438.15 - 4499.26 ,	phi= -31.5974 - -13.3234 ,	z= 6958.05 - 7007.39 ,	rob= 0x6d010f ,	hash= 0x2f ]
[ lyr= 1 ,	det= 1 ,	r= 3438.15 - 4499.26 ,	phi= -31.5974 - -13.3234 ,	z= 6958.05 - 7007.39 ,	rob= 0x6d020f ,	hash= 0x2f ]
[ lyr= 1 ,	det= 1 ,	r= 3438.15 - 4499.26 ,	phi= -31.5974 - -13.3234 ,	z= 6958.05 - 7007.39 ,	rob= 0x6d030f ,	hash= 0x2f ]
[ lyr= 1 ,	det= -1 ,	r= 3499.87 - 4771.09 ,	phi= -14.5304 - 14.5221 ,	z= -7484.65 - -7435.31 ,	rob= 0x6e0000 ,	hash= 0x30 ]
[ lyr= 1 ,	det= -1 ,	r= 3499.87 - 4771.09 ,	phi= -14.5304 - 14.5221 ,	z= -7484.65 - -7435.31 ,	rob= 0x6e0100 ,	hash= 0x30 ]
[ lyr= 1 ,	det= -1 ,	r= 3499.87 - 4771.09 ,	phi= -14.5304 - 14.5221 ,	z= -7484.65 - -7435.31 ,	rob= 0x6e0200 ,	hash= 0x30 ]
[ lyr= 1 ,	det= -1 ,	r= 3499.87 - 4771.09 ,	phi= -14.5304 - 14.5221 ,	z= -7484.65 - -7435.31 ,	rob= 0x6e0300 ,	hash= 0x30 ]
[ lyr= 1 ,	det= -1 ,	r= 3501.04 - 4772.23 ,	phi= 30.5003 - 59.5436 ,	z= -7485.51 - -7436.17 ,	rob= 0x6e0002 ,	hash= 0x31 ]
[ lyr= 1 ,	det= -1 ,	r= 3501.04 - 4772.23 ,	phi= 30.5003 - 59.5436 ,	z= -7485.51 - -7436.17 ,	rob= 0x6e0102 ,	hash= 0x31 ]
[ lyr= 1 ,	det= -1 ,	r= 3501.04 - 4772.23 ,	phi= 30.5003 - 59.5436 ,	z= -7485.51 - -7436.17 ,	rob= 0x6e0202 ,	hash= 0x31 ]
[ lyr= 1 ,	det= -1 ,	r= 3501.04 - 4772.23 ,	phi= 30.5003 - 59.5436 ,	z= -7485.51 - -7436.17 ,	rob= 0x6e0302 ,	hash= 0x31 ]
[ lyr= 1 ,	det= -1 ,	r= 3501.49 - 4772.67 ,	phi= 75.4966 - 104.536 ,	z= -7487.32 - -7437.98 ,	rob= 0x6e0004 ,	hash= 0x32 ]
[ lyr= 1 ,	det= -1 ,	r= 3501.49 - 4772.67 ,	phi= 75.4966 - 104.536 ,	z= -7487.32 - -7437.98 ,	rob= 0x6e0104 ,	hash= 0x32 ]
[ lyr= 1 ,	det= -1 ,	r= 3501.49 - 4772.67 ,	phi= 75.4966 - 104.536 ,	z= -7487.32 - -7437.98 ,	rob= 0x6e0204 ,	hash= 0x32 ]
[ lyr= 1 ,	det= -1 ,	r= 3501.49 - 4772.67 ,	phi= 75.4966 - 104.536 ,	z= -7487.32 - -7437.98 ,	rob= 0x6e0304 ,	hash= 0x32 ]
[ lyr= 1 ,	det= -1 ,	r= 3501.33 - 4772.52 ,	phi= 120.478 - 149.519 ,	z= -7488.55 - -7439.21 ,	rob= 0x6e0006 ,	hash= 0x33 ]
[ lyr= 1 ,	det= -1 ,	r= 3501.33 - 4772.52 ,	phi= 120.478 - 149.519 ,	z= -7488.55 - -7439.21 ,	rob= 0x6e0106 ,	hash= 0x33 ]
[ lyr= 1 ,	det= -1 ,	r= 3501.33 - 4772.52 ,	phi= 120.478 - 149.519 ,	z= -7488.55 - -7439.21 ,	rob= 0x6e0206 ,	hash= 0x33 ]
[ lyr= 1 ,	det= -1 ,	r= 3501.33 - 4772.52 ,	phi= 120.478 - 149.519 ,	z= -7488.55 - -7439.21 ,	rob= 0x6e0306 ,	hash= 0x33 ]
[ lyr= 1 ,	det= -1 ,	r= 3500.21 - 4771.42 ,	phi= 165.499 - -165.452 ,	z= -7484.47 - -7435.13 ,	rob= 0x6e0008 ,	hash= 0x34 ]
[ lyr= 1 ,	det= -1 ,	r= 3500.21 - 4771.42 ,	phi= 165.499 - -165.452 ,	z= -7484.47 - -7435.13 ,	rob= 0x6e0108 ,	hash= 0x34 ]
[ lyr= 1 ,	det= -1 ,	r= 3500.21 - 4771.42 ,	phi= 165.499 - -165.452 ,	z= -7484.47 - -7435.13 ,	rob= 0x6e0208 ,	hash= 0x34 ]
[ lyr= 1 ,	det= -1 ,	r= 3500.21 - 4771.42 ,	phi= 165.499 - -165.452 ,	z= -7484.47 - -7435.13 ,	rob= 0x6e0308 ,	hash= 0x34 ]
[ lyr= 1 ,	det= -1 ,	r= 3500.48 - 4771.68 ,	phi= -149.538 - -120.49 ,	z= -7485.12 - -7435.78 ,	rob= 0x6e000a ,	hash= 0x35 ]
[ lyr= 1 ,	det= -1 ,	r= 3500.48 - 4771.68 ,	phi= -149.538 - -120.49 ,	z= -7485.12 - -7435.78 ,	rob= 0x6e010a ,	hash= 0x35 ]
[ lyr= 1 ,	det= -1 ,	r= 3500.48 - 4771.68 ,	phi= -149.538 - -120.49 ,	z= -7485.12 - -7435.78 ,	rob= 0x6e020a ,	hash= 0x35 ]
[ lyr= 1 ,	det= -1 ,	r= 3500.48 - 4771.68 ,	phi= -149.538 - -120.49 ,	z= -7485.12 - -7435.78 ,	rob= 0x6e030a ,	hash= 0x35 ]
[ lyr= 1 ,	det= -1 ,	r= 3498.15 - 4769.41 ,	phi= -104.551 - -75.4852 ,	z= -7484.88 - -7435.54 ,	rob= 0x6e000c ,	hash= 0x36 ]
[ lyr= 1 ,	det= -1 ,	r= 3498.15 - 4769.41 ,	phi= -104.551 - -75.4852 ,	z= -7484.88 - -7435.54 ,	rob= 0x6e010c ,	hash= 0x36 ]
[ lyr= 1 ,	det= -1 ,	r= 3498.15 - 4769.41 ,	phi= -104.551 - -75.4852 ,	z= -7484.88 - -7435.54 ,	rob= 0x6e020c ,	hash= 0x36 ]
[ lyr= 1 ,	det= -1 ,	r= 3498.15 - 4769.41 ,	phi= -104.551 - -75.4852 ,	z= -7484.88 - -7435.54 ,	rob= 0x6e030c ,	hash= 0x36 ]
[ lyr= 1 ,	det= -1 ,	r= 3501.77 - 4772.94 ,	phi= -59.48 - -30.4426 ,	z= -7486.25 - -7436.91 ,	rob= 0x6e000e ,	hash= 0x37 ]
[ lyr= 1 ,	det= -1 ,	r= 3501.77 - 4772.94 ,	phi= -59.48 - -30.4426 ,	z= -7486.25 - -7436.91 ,	rob= 0x6e010e ,	hash= 0x37 ]
[ lyr= 1 ,	det= -1 ,	r= 3501.77 - 4772.94 ,	phi= -59.48 - -30.4426 ,	z= -7486.25 - -7436.91 ,	rob= 0x6e020e ,	hash= 0x37 ]
[ lyr= 1 ,	det= -1 ,	r= 3501.77 - 4772.94 ,	phi= -59.48 - -30.4426 ,	z= -7486.25 - -7436.91 ,	rob= 0x6e030e ,	hash= 0x37 ]
[ lyr= 1 ,	det= -1 ,	r= 2268.48 - 3579.07 ,	phi= -14.9479 - 14.9609 ,	z= -7481.98 - -7432.64 ,	rob= 0x6e0000 ,	hash= 0x38 ]
[ lyr= 1 ,	det= -1 ,	r= 2268.48 - 3579.07 ,	phi= -14.9479 - 14.9609 ,	z= -7481.98 - -7432.64 ,	rob= 0x6e0100 ,	hash= 0x38 ]
[ lyr= 1 ,	det= -1 ,	r= 2268.48 - 3579.07 ,	phi= -14.9479 - 14.9609 ,	z= -7481.98 - -7432.64 ,	rob= 0x6e0200 ,	hash= 0x38 ]
[ lyr= 1 ,	det= -1 ,	r= 2268.48 - 3579.07 ,	phi= -14.9479 - 14.9609 ,	z= -7481.98 - -7432.64 ,	rob= 0x6e0300 ,	hash= 0x38 ]
[ lyr= 1 ,	det= -1 ,	r= 2269.28 - 3579.84 ,	phi= 30.068 - 59.9668 ,	z= -7483.01 - -7433.67 ,	rob= 0x6e0002 ,	hash= 0x39 ]
[ lyr= 1 ,	det= -1 ,	r= 2269.28 - 3579.84 ,	phi= 30.068 - 59.9668 ,	z= -7483.01 - -7433.67 ,	rob= 0x6e0102 ,	hash= 0x39 ]
[ lyr= 1 ,	det= -1 ,	r= 2269.28 - 3579.84 ,	phi= 30.068 - 59.9668 ,	z= -7483.01 - -7433.67 ,	rob= 0x6e0202 ,	hash= 0x39 ]
[ lyr= 1 ,	det= -1 ,	r= 2269.28 - 3579.84 ,	phi= 30.068 - 59.9668 ,	z= -7483.01 - -7433.67 ,	rob= 0x6e0302 ,	hash= 0x39 ]
[ lyr= 1 ,	det= -1 ,	r= 2270.52 - 3581.03 ,	phi= 75.0652 - 104.948 ,	z= -7483.34 - -7434 ,	rob= 0x6e0004 ,	hash= 0x3a ]
[ lyr= 1 ,	det= -1 ,	r= 2270.52 - 3581.03 ,	phi= 75.0652 - 104.948 ,	z= -7483.34 - -7434 ,	rob= 0x6e0104 ,	hash= 0x3a ]
[ lyr= 1 ,	det= -1 ,	r= 2270.52 - 3581.03 ,	phi= 75.0652 - 104.948 ,	z= -7483.34 - -7434 ,	rob= 0x6e0204 ,	hash= 0x3a ]
[ lyr= 1 ,	det= -1 ,	r= 2270.52 - 3581.03 ,	phi= 75.0652 - 104.948 ,	z= -7483.34 - -7434 ,	rob= 0x6e0304 ,	hash= 0x3a ]
[ lyr= 1 ,	det= -1 ,	r= 2269.01 - 3579.57 ,	phi= 120.034 - 149.936 ,	z= -7485.75 - -7436.41 ,	rob= 0x6e0006 ,	hash= 0x3b ]
[ lyr= 1 ,	det= -1 ,	r= 2269.01 - 3579.57 ,	phi= 120.034 - 149.936 ,	z= -7485.75 - -7436.41 ,	rob= 0x6e0106 ,	hash= 0x3b ]
[ lyr= 1 ,	det= -1 ,	r= 2269.01 - 3579.57 ,	phi= 120.034 - 149.936 ,	z= -7485.75 - -7436.41 ,	rob= 0x6e0206 ,	hash= 0x3b ]
[ lyr= 1 ,	det= -1 ,	r= 2269.01 - 3579.57 ,	phi= 120.034 - 149.936 ,	z= -7485.75 - -7436.41 ,	rob= 0x6e0306 ,	hash= 0x3b ]
[ lyr= 1 ,	det= -1 ,	r= 2268.54 - 3579.12 ,	phi= 165.046 - -165.046 ,	z= -7484.31 - -7434.97 ,	rob= 0x6e0008 ,	hash= 0x3c ]
[ lyr= 1 ,	det= -1 ,	r= 2268.54 - 3579.12 ,	phi= 165.046 - -165.046 ,	z= -7484.31 - -7434.97 ,	rob= 0x6e0108 ,	hash= 0x3c ]
[ lyr= 1 ,	det= -1 ,	r= 2268.54 - 3579.12 ,	phi= 165.046 - -165.046 ,	z= -7484.31 - -7434.97 ,	rob= 0x6e0208 ,	hash= 0x3c ]
[ lyr= 1 ,	det= -1 ,	r= 2268.54 - 3579.12 ,	phi= 165.046 - -165.046 ,	z= -7484.31 - -7434.97 ,	rob= 0x6e0308 ,	hash= 0x3c ]
[ lyr= 1 ,	det= -1 ,	r= 2268.94 - 3579.51 ,	phi= -149.973 - -120.07 ,	z= -7482.9 - -7433.56 ,	rob= 0x6e000a ,	hash= 0x3d ]
[ lyr= 1 ,	det= -1 ,	r= 2268.94 - 3579.51 ,	phi= -149.973 - -120.07 ,	z= -7482.9 - -7433.56 ,	rob= 0x6e010a ,	hash= 0x3d ]
[ lyr= 1 ,	det= -1 ,	r= 2268.94 - 3579.51 ,	phi= -149.973 - -120.07 ,	z= -7482.9 - -7433.56 ,	rob= 0x6e020a ,	hash= 0x3d ]
[ lyr= 1 ,	det= -1 ,	r= 2268.94 - 3579.51 ,	phi= -149.973 - -120.07 ,	z= -7482.9 - -7433.56 ,	rob= 0x6e030a ,	hash= 0x3d ]
[ lyr= 1 ,	det= -1 ,	r= 2265.72 - 3576.4 ,	phi= -105.008 - -75.0646 ,	z= -7483.29 - -7433.95 ,	rob= 0x6e000c ,	hash= 0x3e ]
[ lyr= 1 ,	det= -1 ,	r= 2265.72 - 3576.4 ,	phi= -105.008 - -75.0646 ,	z= -7483.29 - -7433.95 ,	rob= 0x6e010c ,	hash= 0x3e ]
[ lyr= 1 ,	det= -1 ,	r= 2265.72 - 3576.4 ,	phi= -105.008 - -75.0646 ,	z= -7483.29 - -7433.95 ,	rob= 0x6e020c ,	hash= 0x3e ]
[ lyr= 1 ,	det= -1 ,	r= 2265.72 - 3576.4 ,	phi= -105.008 - -75.0646 ,	z= -7483.29 - -7433.95 ,	rob= 0x6e030c ,	hash= 0x3e ]
[ lyr= 1 ,	det= -1 ,	r= 2269.88 - 3580.42 ,	phi= -59.9131 - -30.0218 ,	z= -7484.51 - -7435.17 ,	rob= 0x6e000e ,	hash= 0x3f ]
[ lyr= 1 ,	det= -1 ,	r= 2269.88 - 3580.42 ,	phi= -59.9131 - -30.0218 ,	z= -7484.51 - -7435.17 ,	rob= 0x6e010e ,	hash= 0x3f ]
[ lyr= 1 ,	det= -1 ,	r= 2269.88 - 3580.42 ,	phi= -59.9131 - -30.0218 ,	z= -7484.51 - -7435.17 ,	rob= 0x6e020e ,	hash= 0x3f ]
[ lyr= 1 ,	det= -1 ,	r= 2269.88 - 3580.42 ,	phi= -59.9131 - -30.0218 ,	z= -7484.51 - -7435.17 ,	rob= 0x6e030e ,	hash= 0x3f ]
[ lyr= 1 ,	det= -1 ,	r= 927.62 - 2338.8 ,	phi= -16.2601 - 16.3456 ,	z= -7480.63 - -7431.29 ,	rob= 0x6e0000 ,	hash= 0x40 ]
[ lyr= 1 ,	det= -1 ,	r= 927.62 - 2338.8 ,	phi= -16.2601 - 16.3456 ,	z= -7480.63 - -7431.29 ,	rob= 0x6e0100 ,	hash= 0x40 ]
[ lyr= 1 ,	det= -1 ,	r= 927.62 - 2338.8 ,	phi= -16.2601 - 16.3456 ,	z= -7480.63 - -7431.29 ,	rob= 0x6e0200 ,	hash= 0x40 ]
[ lyr= 1 ,	det= -1 ,	r= 927.62 - 2338.8 ,	phi= -16.2601 - 16.3456 ,	z= -7480.63 - -7431.29 ,	rob= 0x6e0300 ,	hash= 0x40 ]
[ lyr= 1 ,	det= -1 ,	r= 928.558 - 2339.71 ,	phi= 28.7241 - 61.2986 ,	z= -7481.06 - -7431.72 ,	rob= 0x6e0002 ,	hash= 0x41 ]
[ lyr= 1 ,	det= -1 ,	r= 928.558 - 2339.71 ,	phi= 28.7241 - 61.2986 ,	z= -7481.06 - -7431.72 ,	rob= 0x6e0102 ,	hash= 0x41 ]
[ lyr= 1 ,	det= -1 ,	r= 928.558 - 2339.71 ,	phi= 28.7241 - 61.2986 ,	z= -7481.06 - -7431.72 ,	rob= 0x6e0202 ,	hash= 0x41 ]
[ lyr= 1 ,	det= -1 ,	r= 928.558 - 2339.71 ,	phi= 28.7241 - 61.2986 ,	z= -7481.06 - -7431.72 ,	rob= 0x6e0302 ,	hash= 0x41 ]
[ lyr= 1 ,	det= -1 ,	r= 929.48 - 2340.6 ,	phi= 73.7162 - 106.26 ,	z= -7480.57 - -7431.23 ,	rob= 0x6e0004 ,	hash= 0x42 ]
[ lyr= 1 ,	det= -1 ,	r= 929.48 - 2340.6 ,	phi= 73.7162 - 106.26 ,	z= -7480.57 - -7431.23 ,	rob= 0x6e0104 ,	hash= 0x42 ]
[ lyr= 1 ,	det= -1 ,	r= 929.48 - 2340.6 ,	phi= 73.7162 - 106.26 ,	z= -7480.57 - -7431.23 ,	rob= 0x6e0204 ,	hash= 0x42 ]
[ lyr= 1 ,	det= -1 ,	r= 929.48 - 2340.6 ,	phi= 73.7162 - 106.26 ,	z= -7480.57 - -7431.23 ,	rob= 0x6e0304 ,	hash= 0x42 ]
[ lyr= 1 ,	det= -1 ,	r= 928.17 - 2339.33 ,	phi= 118.672 - 151.26 ,	z= -7486.06 - -7436.72 ,	rob= 0x6e0006 ,	hash= 0x43 ]
[ lyr= 1 ,	det= -1 ,	r= 928.17 - 2339.33 ,	phi= 118.672 - 151.26 ,	z= -7486.06 - -7436.72 ,	rob= 0x6e0106 ,	hash= 0x43 ]
[ lyr= 1 ,	det= -1 ,	r= 928.17 - 2339.33 ,	phi= 118.672 - 151.26 ,	z= -7486.06 - -7436.72 ,	rob= 0x6e0206 ,	hash= 0x43 ]
[ lyr= 1 ,	det= -1 ,	r= 928.17 - 2339.33 ,	phi= 118.672 - 151.26 ,	z= -7486.06 - -7436.72 ,	rob= 0x6e0306 ,	hash= 0x43 ]
[ lyr= 1 ,	det= -1 ,	r= 927.834 - 2339.01 ,	phi= 163.65 - -163.751 ,	z= -7484.47 - -7435.13 ,	rob= 0x6e0008 ,	hash= 0x44 ]
[ lyr= 1 ,	det= -1 ,	r= 927.834 - 2339.01 ,	phi= 163.65 - -163.751 ,	z= -7484.47 - -7435.13 ,	rob= 0x6e0108 ,	hash= 0x44 ]
[ lyr= 1 ,	det= -1 ,	r= 927.834 - 2339.01 ,	phi= 163.65 - -163.751 ,	z= -7484.47 - -7435.13 ,	rob= 0x6e0208 ,	hash= 0x44 ]
[ lyr= 1 ,	det= -1 ,	r= 927.834 - 2339.01 ,	phi= 163.65 - -163.751 ,	z= -7484.47 - -7435.13 ,	rob= 0x6e0308 ,	hash= 0x44 ]
[ lyr= 1 ,	det= -1 ,	r= 928.369 - 2339.52 ,	phi= -151.328 - -118.747 ,	z= -7481.16 - -7431.82 ,	rob= 0x6e000a ,	hash= 0x45 ]
[ lyr= 1 ,	det= -1 ,	r= 928.369 - 2339.52 ,	phi= -151.328 - -118.747 ,	z= -7481.16 - -7431.82 ,	rob= 0x6e010a ,	hash= 0x45 ]
[ lyr= 1 ,	det= -1 ,	r= 928.369 - 2339.52 ,	phi= -151.328 - -118.747 ,	z= -7481.16 - -7431.82 ,	rob= 0x6e020a ,	hash= 0x45 ]
[ lyr= 1 ,	det= -1 ,	r= 928.369 - 2339.52 ,	phi= -151.328 - -118.747 ,	z= -7481.16 - -7431.82 ,	rob= 0x6e030a ,	hash= 0x45 ]
[ lyr= 1 ,	det= -1 ,	r= 925.062 - 2336.33 ,	phi= -106.417 - -73.7256 ,	z= -7480.69 - -7431.35 ,	rob= 0x6e000c ,	hash= 0x46 ]
[ lyr= 1 ,	det= -1 ,	r= 925.062 - 2336.33 ,	phi= -106.417 - -73.7256 ,	z= -7480.69 - -7431.35 ,	rob= 0x6e010c ,	hash= 0x46 ]
[ lyr= 1 ,	det= -1 ,	r= 925.062 - 2336.33 ,	phi= -106.417 - -73.7256 ,	z= -7480.69 - -7431.35 ,	rob= 0x6e020c ,	hash= 0x46 ]
[ lyr= 1 ,	det= -1 ,	r= 925.062 - 2336.33 ,	phi= -106.417 - -73.7256 ,	z= -7480.69 - -7431.35 ,	rob= 0x6e030c ,	hash= 0x46 ]
[ lyr= 1 ,	det= -1 ,	r= 929.459 - 2340.58 ,	phi= -61.2578 - -28.7132 ,	z= -7482.69 - -7433.35 ,	rob= 0x6e000e ,	hash= 0x47 ]
[ lyr= 1 ,	det= -1 ,	r= 929.459 - 2340.58 ,	phi= -61.2578 - -28.7132 ,	z= -7482.69 - -7433.35 ,	rob= 0x6e010e ,	hash= 0x47 ]
[ lyr= 1 ,	det= -1 ,	r= 929.459 - 2340.58 ,	phi= -61.2578 - -28.7132 ,	z= -7482.69 - -7433.35 ,	rob= 0x6e020e ,	hash= 0x47 ]
[ lyr= 1 ,	det= -1 ,	r= 929.459 - 2340.58 ,	phi= -61.2578 - -28.7132 ,	z= -7482.69 - -7433.35 ,	rob= 0x6e030e ,	hash= 0x47 ]
[ lyr= 1 ,	det= 1 ,	r= 927.915 - 2339.09 ,	phi= -16.2635 - 16.3323 ,	z= 7430.71 - 7480.05 ,	rob= 0x6d0000 ,	hash= 0x48 ]
[ lyr= 1 ,	det= 1 ,	r= 927.915 - 2339.09 ,	phi= -16.2635 - 16.3323 ,	z= 7430.71 - 7480.05 ,	rob= 0x6d0100 ,	hash= 0x48 ]
[ lyr= 1 ,	det= 1 ,	r= 927.915 - 2339.09 ,	phi= -16.2635 - 16.3323 ,	z= 7430.71 - 7480.05 ,	rob= 0x6d0200 ,	hash= 0x48 ]
[ lyr= 1 ,	det= 1 ,	r= 927.915 - 2339.09 ,	phi= -16.2635 - 16.3323 ,	z= 7430.71 - 7480.05 ,	rob= 0x6d0300 ,	hash= 0x48 ]
[ lyr= 1 ,	det= 1 ,	r= 926.718 - 2337.93 ,	phi= 28.636 - 61.2717 ,	z= 7429.15 - 7478.49 ,	rob= 0x6d0002 ,	hash= 0x49 ]
[ lyr= 1 ,	det= 1 ,	r= 926.718 - 2337.93 ,	phi= 28.636 - 61.2717 ,	z= 7429.15 - 7478.49 ,	rob= 0x6d0102 ,	hash= 0x49 ]
[ lyr= 1 ,	det= 1 ,	r= 926.718 - 2337.93 ,	phi= 28.636 - 61.2717 ,	z= 7429.15 - 7478.49 ,	rob= 0x6d0202 ,	hash= 0x49 ]
[ lyr= 1 ,	det= 1 ,	r= 926.718 - 2337.93 ,	phi= 28.636 - 61.2717 ,	z= 7429.15 - 7478.49 ,	rob= 0x6d0302 ,	hash= 0x49 ]
[ lyr= 1 ,	det= 1 ,	r= 927.324 - 2338.51 ,	phi= 73.6549 - 106.27 ,	z= 7428.43 - 7477.77 ,	rob= 0x6d0004 ,	hash= 0x4a ]
[ lyr= 1 ,	det= 1 ,	r= 927.324 - 2338.51 ,	phi= 73.6549 - 106.27 ,	z= 7428.43 - 7477.77 ,	rob= 0x6d0104 ,	hash= 0x4a ]
[ lyr= 1 ,	det= 1 ,	r= 927.324 - 2338.51 ,	phi= 73.6549 - 106.27 ,	z= 7428.43 - 7477.77 ,	rob= 0x6d0204 ,	hash= 0x4a ]
[ lyr= 1 ,	det= 1 ,	r= 927.324 - 2338.51 ,	phi= 73.6549 - 106.27 ,	z= 7428.43 - 7477.77 ,	rob= 0x6d0304 ,	hash= 0x4a ]
[ lyr= 1 ,	det= 1 ,	r= 926.693 - 2337.9 ,	phi= 118.736 - 151.372 ,	z= 7428.52 - 7477.86 ,	rob= 0x6d0006 ,	hash= 0x4b ]
[ lyr= 1 ,	det= 1 ,	r= 926.693 - 2337.9 ,	phi= 118.736 - 151.372 ,	z= 7428.52 - 7477.86 ,	rob= 0x6d0106 ,	hash= 0x4b ]
[ lyr= 1 ,	det= 1 ,	r= 926.693 - 2337.9 ,	phi= 118.736 - 151.372 ,	z= 7428.52 - 7477.86 ,	rob= 0x6d0206 ,	hash= 0x4b ]
[ lyr= 1 ,	det= 1 ,	r= 926.693 - 2337.9 ,	phi= 118.736 - 151.372 ,	z= 7428.52 - 7477.86 ,	rob= 0x6d0306 ,	hash= 0x4b ]
[ lyr= 1 ,	det= 1 ,	r= 928.107 - 2339.27 ,	phi= 163.711 - -163.7 ,	z= 7430.56 - 7479.9 ,	rob= 0x6d0008 ,	hash= 0x4c ]
[ lyr= 1 ,	det= 1 ,	r= 928.107 - 2339.27 ,	phi= 163.711 - -163.7 ,	z= 7430.56 - 7479.9 ,	rob= 0x6d0108 ,	hash= 0x4c ]
[ lyr= 1 ,	det= 1 ,	r= 928.107 - 2339.27 ,	phi= 163.711 - -163.7 ,	z= 7430.56 - 7479.9 ,	rob= 0x6d0208 ,	hash= 0x4c ]
[ lyr= 1 ,	det= 1 ,	r= 928.107 - 2339.27 ,	phi= 163.711 - -163.7 ,	z= 7430.56 - 7479.9 ,	rob= 0x6d0308 ,	hash= 0x4c ]
[ lyr= 1 ,	det= 1 ,	r= 928.852 - 2339.99 ,	phi= -151.309 - -118.744 ,	z= 7430.18 - 7479.52 ,	rob= 0x6d000a ,	hash= 0x4d ]
[ lyr= 1 ,	det= 1 ,	r= 928.852 - 2339.99 ,	phi= -151.309 - -118.744 ,	z= 7430.18 - 7479.52 ,	rob= 0x6d010a ,	hash= 0x4d ]
[ lyr= 1 ,	det= 1 ,	r= 928.852 - 2339.99 ,	phi= -151.309 - -118.744 ,	z= 7430.18 - 7479.52 ,	rob= 0x6d020a ,	hash= 0x4d ]
[ lyr= 1 ,	det= 1 ,	r= 928.852 - 2339.99 ,	phi= -151.309 - -118.744 ,	z= 7430.18 - 7479.52 ,	rob= 0x6d030a ,	hash= 0x4d ]
[ lyr= 1 ,	det= 1 ,	r= 926.356 - 2337.58 ,	phi= -106.414 - -73.7657 ,	z= 7427.3 - 7476.64 ,	rob= 0x6d000c ,	hash= 0x4e ]
[ lyr= 1 ,	det= 1 ,	r= 926.356 - 2337.58 ,	phi= -106.414 - -73.7657 ,	z= 7427.3 - 7476.64 ,	rob= 0x6d010c ,	hash= 0x4e ]
[ lyr= 1 ,	det= 1 ,	r= 926.356 - 2337.58 ,	phi= -106.414 - -73.7657 ,	z= 7427.3 - 7476.64 ,	rob= 0x6d020c ,	hash= 0x4e ]
[ lyr= 1 ,	det= 1 ,	r= 926.356 - 2337.58 ,	phi= -106.414 - -73.7657 ,	z= 7427.3 - 7476.64 ,	rob= 0x6d030c ,	hash= 0x4e ]
[ lyr= 1 ,	det= 1 ,	r= 929.046 - 2340.18 ,	phi= -61.2266 - -28.6683 ,	z= 7428.32 - 7477.66 ,	rob= 0x6d000e ,	hash= 0x4f ]
[ lyr= 1 ,	det= 1 ,	r= 929.046 - 2340.18 ,	phi= -61.2266 - -28.6683 ,	z= 7428.32 - 7477.66 ,	rob= 0x6d010e ,	hash= 0x4f ]
[ lyr= 1 ,	det= 1 ,	r= 929.046 - 2340.18 ,	phi= -61.2266 - -28.6683 ,	z= 7428.32 - 7477.66 ,	rob= 0x6d020e ,	hash= 0x4f ]
[ lyr= 1 ,	det= 1 ,	r= 929.046 - 2340.18 ,	phi= -61.2266 - -28.6683 ,	z= 7428.32 - 7477.66 ,	rob= 0x6d030e ,	hash= 0x4f ]
[ lyr= 1 ,	det= 1 ,	r= 2268.58 - 3579.15 ,	phi= -14.9609 - 14.9468 ,	z= 7428.34 - 7477.68 ,	rob= 0x6d0000 ,	hash= 0x50 ]
[ lyr= 1 ,	det= 1 ,	r= 2268.58 - 3579.15 ,	phi= -14.9609 - 14.9468 ,	z= 7428.34 - 7477.68 ,	rob= 0x6d0100 ,	hash= 0x50 ]
[ lyr= 1 ,	det= 1 ,	r= 2268.58 - 3579.15 ,	phi= -14.9609 - 14.9468 ,	z= 7428.34 - 7477.68 ,	rob= 0x6d0200 ,	hash= 0x50 ]
[ lyr= 1 ,	det= 1 ,	r= 2268.58 - 3579.15 ,	phi= -14.9609 - 14.9468 ,	z= 7428.34 - 7477.68 ,	rob= 0x6d0300 ,	hash= 0x50 ]
[ lyr= 1 ,	det= 1 ,	r= 2267.54 - 3578.15 ,	phi= 30.0319 - 59.9526 ,	z= 7430.5 - 7479.84 ,	rob= 0x6d0002 ,	hash= 0x51 ]
[ lyr= 1 ,	det= 1 ,	r= 2267.54 - 3578.15 ,	phi= 30.0319 - 59.9526 ,	z= 7430.5 - 7479.84 ,	rob= 0x6d0102 ,	hash= 0x51 ]
[ lyr= 1 ,	det= 1 ,	r= 2267.54 - 3578.15 ,	phi= 30.0319 - 59.9526 ,	z= 7430.5 - 7479.84 ,	rob= 0x6d0202 ,	hash= 0x51 ]
[ lyr= 1 ,	det= 1 ,	r= 2267.54 - 3578.15 ,	phi= 30.0319 - 59.9526 ,	z= 7430.5 - 7479.84 ,	rob= 0x6d0302 ,	hash= 0x51 ]
[ lyr= 1 ,	det= 1 ,	r= 2268.09 - 3578.69 ,	phi= 75.0261 - 104.94 ,	z= 7429.97 - 7479.31 ,	rob= 0x6d0004 ,	hash= 0x52 ]
[ lyr= 1 ,	det= 1 ,	r= 2268.09 - 3578.69 ,	phi= 75.0261 - 104.94 ,	z= 7429.97 - 7479.31 ,	rob= 0x6d0104 ,	hash= 0x52 ]
[ lyr= 1 ,	det= 1 ,	r= 2268.09 - 3578.69 ,	phi= 75.0261 - 104.94 ,	z= 7429.97 - 7479.31 ,	rob= 0x6d0204 ,	hash= 0x52 ]
[ lyr= 1 ,	det= 1 ,	r= 2268.09 - 3578.69 ,	phi= 75.0261 - 104.94 ,	z= 7429.97 - 7479.31 ,	rob= 0x6d0304 ,	hash= 0x52 ]
[ lyr= 1 ,	det= 1 ,	r= 2267.63 - 3578.24 ,	phi= 120.069 - 149.988 ,	z= 7429.81 - 7479.15 ,	rob= 0x6d0006 ,	hash= 0x53 ]
[ lyr= 1 ,	det= 1 ,	r= 2267.63 - 3578.24 ,	phi= 120.069 - 149.988 ,	z= 7429.81 - 7479.15 ,	rob= 0x6d0106 ,	hash= 0x53 ]
[ lyr= 1 ,	det= 1 ,	r= 2267.63 - 3578.24 ,	phi= 120.069 - 149.988 ,	z= 7429.81 - 7479.15 ,	rob= 0x6d0206 ,	hash= 0x53 ]
[ lyr= 1 ,	det= 1 ,	r= 2267.63 - 3578.24 ,	phi= 120.069 - 149.988 ,	z= 7429.81 - 7479.15 ,	rob= 0x6d0306 ,	hash= 0x53 ]
[ lyr= 1 ,	det= 1 ,	r= 2268.88 - 3579.45 ,	phi= 165.084 - -165.012 ,	z= 7429.13 - 7478.47 ,	rob= 0x6d0008 ,	hash= 0x54 ]
[ lyr= 1 ,	det= 1 ,	r= 2268.88 - 3579.45 ,	phi= 165.084 - -165.012 ,	z= 7429.13 - 7478.47 ,	rob= 0x6d0108 ,	hash= 0x54 ]
[ lyr= 1 ,	det= 1 ,	r= 2268.88 - 3579.45 ,	phi= 165.084 - -165.012 ,	z= 7429.13 - 7478.47 ,	rob= 0x6d0208 ,	hash= 0x54 ]
[ lyr= 1 ,	det= 1 ,	r= 2268.88 - 3579.45 ,	phi= 165.084 - -165.012 ,	z= 7429.13 - 7478.47 ,	rob= 0x6d0308 ,	hash= 0x54 ]
[ lyr= 1 ,	det= 1 ,	r= 2269.84 - 3580.37 ,	phi= -149.945 - -120.053 ,	z= 7429.26 - 7478.6 ,	rob= 0x6d000a ,	hash= 0x55 ]
[ lyr= 1 ,	det= 1 ,	r= 2269.84 - 3580.37 ,	phi= -149.945 - -120.053 ,	z= 7429.26 - 7478.6 ,	rob= 0x6d010a ,	hash= 0x55 ]
[ lyr= 1 ,	det= 1 ,	r= 2269.84 - 3580.37 ,	phi= -149.945 - -120.053 ,	z= 7429.26 - 7478.6 ,	rob= 0x6d020a ,	hash= 0x55 ]
[ lyr= 1 ,	det= 1 ,	r= 2269.84 - 3580.37 ,	phi= -149.945 - -120.053 ,	z= 7429.26 - 7478.6 ,	rob= 0x6d030a ,	hash= 0x55 ]
[ lyr= 1 ,	det= 1 ,	r= 2267.35 - 3577.97 ,	phi= -105 - -75.0772 ,	z= 7428.93 - 7478.27 ,	rob= 0x6d000c ,	hash= 0x56 ]
[ lyr= 1 ,	det= 1 ,	r= 2267.35 - 3577.97 ,	phi= -105 - -75.0772 ,	z= 7428.93 - 7478.27 ,	rob= 0x6d010c ,	hash= 0x56 ]
[ lyr= 1 ,	det= 1 ,	r= 2267.35 - 3577.97 ,	phi= -105 - -75.0772 ,	z= 7428.93 - 7478.27 ,	rob= 0x6d020c ,	hash= 0x56 ]
[ lyr= 1 ,	det= 1 ,	r= 2267.35 - 3577.97 ,	phi= -105 - -75.0772 ,	z= 7428.93 - 7478.27 ,	rob= 0x6d030c ,	hash= 0x56 ]
[ lyr= 1 ,	det= 1 ,	r= 2269.62 - 3580.17 ,	phi= -59.8961 - -30.0016 ,	z= 7429.12 - 7478.46 ,	rob= 0x6d000e ,	hash= 0x57 ]
[ lyr= 1 ,	det= 1 ,	r= 2269.62 - 3580.17 ,	phi= -59.8961 - -30.0016 ,	z= 7429.12 - 7478.46 ,	rob= 0x6d010e ,	hash= 0x57 ]
[ lyr= 1 ,	det= 1 ,	r= 2269.62 - 3580.17 ,	phi= -59.8961 - -30.0016 ,	z= 7429.12 - 7478.46 ,	rob= 0x6d020e ,	hash= 0x57 ]
[ lyr= 1 ,	det= 1 ,	r= 2269.62 - 3580.17 ,	phi= -59.8961 - -30.0016 ,	z= 7429.12 - 7478.46 ,	rob= 0x6d030e ,	hash= 0x57 ]
[ lyr= 1 ,	det= 1 ,	r= 3500.13 - 4771.34 ,	phi= -14.5485 - 14.5019 ,	z= 7426.84 - 7476.18 ,	rob= 0x6d0000 ,	hash= 0x58 ]
[ lyr= 1 ,	det= 1 ,	r= 3500.13 - 4771.34 ,	phi= -14.5485 - 14.5019 ,	z= 7426.84 - 7476.18 ,	rob= 0x6d0100 ,	hash= 0x58 ]
[ lyr= 1 ,	det= 1 ,	r= 3500.13 - 4771.34 ,	phi= -14.5485 - 14.5019 ,	z= 7426.84 - 7476.18 ,	rob= 0x6d0200 ,	hash= 0x58 ]
[ lyr= 1 ,	det= 1 ,	r= 3500.13 - 4771.34 ,	phi= -14.5485 - 14.5019 ,	z= 7426.84 - 7476.18 ,	rob= 0x6d0300 ,	hash= 0x58 ]
[ lyr= 1 ,	det= 1 ,	r= 3498.72 - 4769.97 ,	phi= 30.4732 - 59.5349 ,	z= 7432.4 - 7481.74 ,	rob= 0x6d0002 ,	hash= 0x59 ]
[ lyr= 1 ,	det= 1 ,	r= 3498.72 - 4769.97 ,	phi= 30.4732 - 59.5349 ,	z= 7432.4 - 7481.74 ,	rob= 0x6d0102 ,	hash= 0x59 ]
[ lyr= 1 ,	det= 1 ,	r= 3498.72 - 4769.97 ,	phi= 30.4732 - 59.5349 ,	z= 7432.4 - 7481.74 ,	rob= 0x6d0202 ,	hash= 0x59 ]
[ lyr= 1 ,	det= 1 ,	r= 3498.72 - 4769.97 ,	phi= 30.4732 - 59.5349 ,	z= 7432.4 - 7481.74 ,	rob= 0x6d0302 ,	hash= 0x59 ]
[ lyr= 1 ,	det= 1 ,	r= 3500.2 - 4771.41 ,	phi= 75.4606 - 104.51 ,	z= 7432.06 - 7481.4 ,	rob= 0x6d0004 ,	hash= 0x5a ]
[ lyr= 1 ,	det= 1 ,	r= 3500.2 - 4771.41 ,	phi= 75.4606 - 104.51 ,	z= 7432.06 - 7481.4 ,	rob= 0x6d0104 ,	hash= 0x5a ]
[ lyr= 1 ,	det= 1 ,	r= 3500.2 - 4771.41 ,	phi= 75.4606 - 104.51 ,	z= 7432.06 - 7481.4 ,	rob= 0x6d0204 ,	hash= 0x5a ]
[ lyr= 1 ,	det= 1 ,	r= 3500.2 - 4771.41 ,	phi= 75.4606 - 104.51 ,	z= 7432.06 - 7481.4 ,	rob= 0x6d0304 ,	hash= 0x5a ]
[ lyr= 1 ,	det= 1 ,	r= 3498.62 - 4769.87 ,	phi= 120.485 - 149.547 ,	z= 7432.27 - 7481.61 ,	rob= 0x6d0006 ,	hash= 0x5b ]
[ lyr= 1 ,	det= 1 ,	r= 3498.62 - 4769.87 ,	phi= 120.485 - 149.547 ,	z= 7432.27 - 7481.61 ,	rob= 0x6d0106 ,	hash= 0x5b ]
[ lyr= 1 ,	det= 1 ,	r= 3498.62 - 4769.87 ,	phi= 120.485 - 149.547 ,	z= 7432.27 - 7481.61 ,	rob= 0x6d0206 ,	hash= 0x5b ]
[ lyr= 1 ,	det= 1 ,	r= 3498.62 - 4769.87 ,	phi= 120.485 - 149.547 ,	z= 7432.27 - 7481.61 ,	rob= 0x6d0306 ,	hash= 0x5b ]
[ lyr= 1 ,	det= 1 ,	r= 3500.64 - 4771.84 ,	phi= 165.52 - -165.434 ,	z= 7428.43 - 7477.77 ,	rob= 0x6d0008 ,	hash= 0x5c ]
[ lyr= 1 ,	det= 1 ,	r= 3500.64 - 4771.84 ,	phi= 165.52 - -165.434 ,	z= 7428.43 - 7477.77 ,	rob= 0x6d0108 ,	hash= 0x5c ]
[ lyr= 1 ,	det= 1 ,	r= 3500.64 - 4771.84 ,	phi= 165.52 - -165.434 ,	z= 7428.43 - 7477.77 ,	rob= 0x6d0208 ,	hash= 0x5c ]
[ lyr= 1 ,	det= 1 ,	r= 3500.64 - 4771.84 ,	phi= 165.52 - -165.434 ,	z= 7428.43 - 7477.77 ,	rob= 0x6d0308 ,	hash= 0x5c ]
[ lyr= 1 ,	det= 1 ,	r= 3501.1 - 4772.29 ,	phi= -149.517 - -120.474 ,	z= 7428.42 - 7477.76 ,	rob= 0x6d000a ,	hash= 0x5d ]
[ lyr= 1 ,	det= 1 ,	r= 3501.1 - 4772.29 ,	phi= -149.517 - -120.474 ,	z= 7428.42 - 7477.76 ,	rob= 0x6d010a ,	hash= 0x5d ]
[ lyr= 1 ,	det= 1 ,	r= 3501.1 - 4772.29 ,	phi= -149.517 - -120.474 ,	z= 7428.42 - 7477.76 ,	rob= 0x6d020a ,	hash= 0x5d ]
[ lyr= 1 ,	det= 1 ,	r= 3501.1 - 4772.29 ,	phi= -149.517 - -120.474 ,	z= 7428.42 - 7477.76 ,	rob= 0x6d030a ,	hash= 0x5d ]
[ lyr= 1 ,	det= 1 ,	r= 3499.17 - 4770.41 ,	phi= -104.555 - -75.4971 ,	z= 7431.24 - 7480.58 ,	rob= 0x6d000c ,	hash= 0x5e ]
[ lyr= 1 ,	det= 1 ,	r= 3499.17 - 4770.41 ,	phi= -104.555 - -75.4971 ,	z= 7431.24 - 7480.58 ,	rob= 0x6d010c ,	hash= 0x5e ]
[ lyr= 1 ,	det= 1 ,	r= 3499.17 - 4770.41 ,	phi= -104.555 - -75.4971 ,	z= 7431.24 - 7480.58 ,	rob= 0x6d020c ,	hash= 0x5e ]
[ lyr= 1 ,	det= 1 ,	r= 3499.17 - 4770.41 ,	phi= -104.555 - -75.4971 ,	z= 7431.24 - 7480.58 ,	rob= 0x6d030c ,	hash= 0x5e ]
[ lyr= 1 ,	det= 1 ,	r= 3501.42 - 4772.6 ,	phi= -59.4697 - -30.4295 ,	z= 7430.03 - 7479.37 ,	rob= 0x6d000e ,	hash= 0x5f ]
[ lyr= 1 ,	det= 1 ,	r= 3501.42 - 4772.6 ,	phi= -59.4697 - -30.4295 ,	z= 7430.03 - 7479.37 ,	rob= 0x6d010e ,	hash= 0x5f ]
[ lyr= 1 ,	det= 1 ,	r= 3501.42 - 4772.6 ,	phi= -59.4697 - -30.4295 ,	z= 7430.03 - 7479.37 ,	rob= 0x6d020e ,	hash= 0x5f ]
[ lyr= 1 ,	det= 1 ,	r= 3501.42 - 4772.6 ,	phi= -59.4697 - -30.4295 ,	z= 7430.03 - 7479.37 ,	rob= 0x6d030e ,	hash= 0x5f ]
